<?xml version="1.0" encoding="UTF-8" standalone="no"?>
<!-- Created with Inkscape (http://www.inkscape.org/) -->

<svg
   xmlns:osb="http://www.openswatchbook.org/uri/2009/osb"
   xmlns:dc="http://purl.org/dc/elements/1.1/"
   xmlns:cc="http://creativecommons.org/ns#"
   xmlns:rdf="http://www.w3.org/1999/02/22-rdf-syntax-ns#"
   xmlns:svg="http://www.w3.org/2000/svg"
   xmlns="http://www.w3.org/2000/svg"
   xmlns:xlink="http://www.w3.org/1999/xlink"
   xmlns:sodipodi="http://sodipodi.sourceforge.net/DTD/sodipodi-0.dtd"
   xmlns:inkscape="http://www.inkscape.org/namespaces/inkscape"
   width="211.04301mm"
   height="188.59944mm"
   viewBox="0 0 211.04301 188.59944"
   version="1.1"
   id="svg8"
   inkscape:version="0.92.3 (2405546, 2018-03-11)"
   sodipodi:docname="scenery2.svg">
  <defs
     id="defs2">
    <linearGradient
       inkscape:collect="always"
       id="linearGradient5450">
      <stop
         style="stop-color:#2c608b;stop-opacity:1"
         offset="0"
         id="stop5446" />
      <stop
         style="stop-color:#5aaaff;stop-opacity:1"
         offset="1"
         id="stop5448" />
    </linearGradient>
    <linearGradient
       id="linearGradient4592"
       inkscape:collect="always">
      <stop
         id="stop4588"
         offset="0"
         style="stop-color:#4184cb;stop-opacity:1" />
      <stop
         id="stop4590"
         offset="1"
         style="stop-color:#002166;stop-opacity:1" />
    </linearGradient>
    <linearGradient
       inkscape:collect="always"
       id="linearGradient4580">
      <stop
         style="stop-color:#397fce;stop-opacity:1"
         offset="0"
         id="stop4576" />
      <stop
         style="stop-color:#152915;stop-opacity:1"
         offset="1"
         id="stop4578" />
    </linearGradient>
    <linearGradient
       inkscape:collect="always"
       id="linearGradient4564">
      <stop
         style="stop-color:#5b74be;stop-opacity:1"
         offset="0"
         id="stop4560" />
      <stop
         style="stop-color:#002166;stop-opacity:1"
         offset="1"
         id="stop4562" />
    </linearGradient>
    <linearGradient
       id="linearGradient4554"
       inkscape:collect="always">
      <stop
         id="stop4550"
         offset="0"
         style="stop-color:#4757c0;stop-opacity:1" />
      <stop
         id="stop4552"
         offset="1"
         style="stop-color:#152915;stop-opacity:1" />
    </linearGradient>
    <linearGradient
       inkscape:collect="always"
       id="linearGradient4540">
      <stop
         style="stop-color:#5aaaff;stop-opacity:1"
         offset="0"
         id="stop4536" />
      <stop
         style="stop-color:#ffffff;stop-opacity:1"
         offset="1"
         id="stop4538" />
    </linearGradient>
    <linearGradient
       id="linearGradient18"
       osb:paint="gradient">
      <stop
         style="stop-color:#00ffff;stop-opacity:1"
         offset="0"
         id="stop14" />
      <stop
         style="stop-color:#000000;stop-opacity:0;"
         offset="1"
         id="stop16" />
    </linearGradient>
    <linearGradient
       inkscape:collect="always"
       xlink:href="#linearGradient4540"
       id="linearGradient4546"
       x1="99.785713"
       y1="13.895833"
       x2="95.25"
       y2="614.07147"
       gradientUnits="userSpaceOnUse"
       gradientTransform="matrix(1.0050872,0,0,0.33375802,-1.0710009,0.1923376)" />
    <linearGradient
       inkscape:collect="always"
       xlink:href="#linearGradient4554"
       id="linearGradient4548"
       x1="106.90781"
       y1="54.051998"
       x2="106.106"
       y2="126.48204"
       gradientUnits="userSpaceOnUse" />
    <linearGradient
       inkscape:collect="always"
       xlink:href="#linearGradient4564"
       id="linearGradient4558"
       gradientUnits="userSpaceOnUse"
       x1="106.90781"
       y1="54.051998"
       x2="106.106"
       y2="126.48204"
       gradientTransform="matrix(-1,0,0,0.92506722,210.15476,7.5951511)" />
    <linearGradient
       inkscape:collect="always"
       xlink:href="#linearGradient4580"
       id="linearGradient4570"
       gradientUnits="userSpaceOnUse"
       x1="106.90781"
       y1="54.051998"
       x2="106.106"
       y2="126.48204"
       gradientTransform="matrix(1,0,0,-1,0,202.18989)" />
    <linearGradient
       inkscape:collect="always"
       xlink:href="#linearGradient4592"
       id="linearGradient4574"
       gradientUnits="userSpaceOnUse"
       gradientTransform="matrix(-1,0,0,-0.92506722,210.15476,195.12391)"
       x1="106.90781"
       y1="54.051998"
       x2="106.106"
       y2="126.48204" />
    <linearGradient
       inkscape:collect="always"
       xlink:href="#linearGradient5450"
       id="linearGradient5444"
       x1="422.24377"
       y1="414.82178"
       x2="419.21332"
       y2="605.7406"
       gradientUnits="userSpaceOnUse" />
  </defs>
  <sodipodi:namedview
     id="base"
     pagecolor="#ffffff"
     bordercolor="#666666"
     borderopacity="1.0"
     inkscape:pageopacity="0.0"
     inkscape:pageshadow="2"
     inkscape:zoom="0.49497475"
     inkscape:cx="837.86193"
     inkscape:cy="300.82852"
     inkscape:document-units="mm"
     inkscape:current-layer="layer1"
     showgrid="false"
     inkscape:window-width="1299"
     inkscape:window-height="713"
     inkscape:window-x="67"
     inkscape:window-y="27"
     inkscape:window-maximized="1"
     inkscape:snap-global="false" />
  <metadata
     id="metadata5">
    <rdf:RDF>
      <cc:Work
         rdf:about="">
        <dc:format>image/svg+xml</dc:format>
        <dc:type
           rdf:resource="http://purl.org/dc/dcmitype/StillImage" />
        <dc:title></dc:title>
      </cc:Work>
    </rdf:RDF>
  </metadata>
  <g
     inkscape:label="Layer 1"
     inkscape:groupmode="layer"
     id="layer1"
     transform="translate(0.51026781,-0.2886903)">
    <rect
       id="rect12"
       width="211.22383"
       height="99.029785"
       x="-0.69110191"
       y="0.2886903"
       style="fill:url(#linearGradient4546);fill-opacity:1;stroke-width:0.1605691" />
    <path
       sodipodi:nodetypes="cccccccccc"
       inkscape:connector-curvature="0"
       id="path4556"
       d="M 189.36607,89.471311 124.41441,46.72876 83.532744,75.415245 29.479651,41.96815 3.82e-6,58.701815 l -0.37798,42.657715 H 210.53274 L 210.39242,92.671319 198.81548,81.07963 Z"
       style="fill:url(#linearGradient4558);fill-opacity:1;stroke:none;stroke-width:0.25447732px;stroke-linecap:butt;stroke-linejoin:miter;stroke-opacity:1" />
    <path
       style="fill:url(#linearGradient4548);fill-opacity:1;stroke:none;stroke-width:0.26458332px;stroke-linecap:butt;stroke-linejoin:miter;stroke-opacity:1"
       d="m 20.78869,88.508335 64.951663,-41.928493 40.881667,26.73385 50.04405,-41.501784 33.48869,23.434524 0.37798,46.113098 H -0.37797618 L -0.23765391,91.967552 11.339286,79.436907 Z"
       id="path10"
       inkscape:connector-curvature="0"
       sodipodi:nodetypes="cccccccccc" />
    <rect
       style="fill:#358cd2;fill-opacity:1;stroke:#0071ff;stroke-width:0.32538441;stroke-opacity:1"
       id="rect4566"
       width="210.65829"
       height="87.33551"
       x="-0.3475756"
       y="101.38993" />
    <path
       style="opacity:1;fill:url(#linearGradient4574);fill-opacity:1;stroke:none;stroke-width:0.25447732px;stroke-linecap:butt;stroke-linejoin:miter;stroke-opacity:1"
       d="M 189.36607,113.24775 124.41441,155.9903 83.532744,127.30382 29.479651,160.75091 3.82e-6,144.01725 l -0.37798,-42.65772 H 210.53274 l -0.14032,8.68821 -11.57694,11.59169 z"
       id="path4572"
       inkscape:connector-curvature="0"
       sodipodi:nodetypes="cccccccccc" />
    <path
       sodipodi:nodetypes="cccccccccc"
       inkscape:connector-curvature="0"
       id="path4568"
       d="m 20.78869,113.68156 64.951663,41.92849 40.881667,-26.73385 50.04405,41.50178 33.48869,-23.43452 0.37798,-46.1131 H -0.37797618 l 0.14032227,9.39198 11.57693991,12.53064 z"
       style="opacity:1;fill:url(#linearGradient4570);fill-opacity:1;stroke:none;stroke-width:0.26458332px;stroke-linecap:butt;stroke-linejoin:miter;stroke-opacity:1" />
    <circle
       style="opacity:1;fill:#f7f5d9;fill-opacity:1;stroke:#ffc552;stroke-width:0.18514024;stroke-opacity:1"
       id="path4596"
       cx="53.664749"
       cy="19.557606"
       r="10.49614" />
    <ellipse
       cy="166.40135"
       cx="55.932606"
       id="circle4598"
       style="opacity:0.31100003;fill:#f7f5d9;fill-opacity:1;stroke:#ffc552;stroke-width:0.15449855;stroke-opacity:1"
       rx="10.51146"
       ry="7.2986627" />
    <path
       style="opacity:0.30800003;fill:url(#linearGradient5444);fill-opacity:1;stroke:none;stroke-width:0.61944228px;stroke-linecap:butt;stroke-linejoin:miter;stroke-opacity:1"
       d="m 95.306641,382.29883 -19.216797,0.41406 c 0,0 12.46215,3.39879 23.625,5.9082 11.162856,2.50938 44.783086,-3.71844 40.929686,-4.09375 -3.85342,-0.37515 -45.337889,-2.22851 -45.337889,-2.22851 z m -74.201172,5.49219 -19.2187502,0.41406 c 0,0 12.4641022,3.39878 23.6269532,5.9082 11.162852,2.50938 44.781136,-3.71844 40.927734,-4.09375 -3.853425,-0.37519 -45.335937,-2.22851 -45.335937,-2.22851 z m 200.623051,0.85351 -19.21875,0.41406 c 0,0 12.4641,3.39879 23.62695,5.90821 11.16286,2.50938 44.78115,-3.71845 40.92773,-4.09375 -3.85343,-0.37516 -45.33593,-2.22852 -45.33593,-2.22852 z m 126.95507,3.0918 -19.21875,0.41601 c 0,0 12.46412,3.39684 23.62696,5.90625 11.16286,2.50942 44.7831,-3.71649 40.92968,-4.09179 -3.85341,-0.3752 -45.33789,-2.23047 -45.33789,-2.23047 z m -266.453121,0.56836 -19.21875,0.41601 c 0,0 12.464103,3.39684 23.626953,5.90625 11.16285,2.50942 44.781128,-3.71649 40.927738,-4.09179 -3.85343,-0.3752 -45.335941,-2.23047 -45.335941,-2.23047 z m 389.755861,1.30664 -19.2168,0.41601 c 0,0 12.46412,3.39684 23.62695,5.90625 11.16288,2.50938 44.78116,-3.71649 40.92774,-4.09179 -3.85342,-0.3752 -45.33789,-2.23047 -45.33789,-2.23047 z m -324.46094,0.52539 -19.2168,0.41406 c 0,0 12.46411,3.39879 23.62696,5.9082 11.16285,2.50938 44.78113,-3.71844 40.92773,-4.09375 -3.85342,-0.37519 -45.33789,-2.22851 -45.33789,-2.22851 z m 451.84766,2.30273 -19.21875,0.41602 c 0,0 12.46408,3.39878 23.62695,5.9082 11.16283,2.50938 44.78115,-3.71844 40.92773,-4.09375 -3.85341,-0.37515 -45.33593,-2.23047 -45.33593,-2.23047 z m -324.89063,0.78907 -19.21875,0.41601 c 0,0 12.46415,3.39683 23.62695,5.90625 11.16287,2.50938 44.78115,-3.71649 40.92774,-4.0918 -3.85341,-0.37515 -45.33594,-2.23046 -45.33594,-2.23046 z m -65.83203,1.42187 -19.2168,0.41602 c 0,0 12.46411,3.39683 23.62696,5.90625 11.16285,2.50938 44.78111,-3.71649 40.92773,-4.0918 -3.85343,-0.37519 -45.33789,-2.23047 -45.33789,-2.23047 z m 189.13477,0.45313 -19.2168,0.41601 c 0,0 12.46216,3.39882 23.625,5.9082 11.16283,2.50942 44.7831,-3.71844 40.92969,-4.09375 -3.85346,-0.37519 -45.33789,-2.23046 -45.33789,-2.23046 z m -365.542972,0.76367 -19.21875,0.41601 c -1e-6,0 12.4641,3.39684 23.626953,5.90625 11.16285,2.50938 44.781136,-3.71649 40.927734,-4.09179 -3.853425,-0.37516 -45.335937,-2.23047 -45.335937,-2.23047 z m 303.363282,1.87695 -19.2168,0.41406 c 0,0 12.4641,3.39879 23.62695,5.90821 11.16284,2.50938 44.78116,-3.71845 40.92774,-4.09375 -3.8534,-0.37524 -45.33789,-2.22852 -45.33789,-2.22852 z m 189.56445,0.1875 -19.2168,0.41602 c 10e-6,0 12.46409,3.39878 23.62696,5.9082 11.16283,2.50938 44.78111,-3.71844 40.92773,-4.09375 -3.85345,-0.37519 -45.33789,-2.23047 -45.33789,-2.23047 z m 200.625,0.85352 -19.21875,0.41601 c 0,0 12.46413,3.39879 23.62695,5.90821 11.16288,2.50936 44.78116,-3.71845 40.92774,-4.09376 -3.85346,-0.37514 -45.33594,-2.23046 -45.33594,-2.23046 z m -266.88476,0.83398 -19.2168,0.41406 c 0,0 12.46216,3.39875 23.625,5.90821 11.16283,2.50938 44.7831,-3.71845 40.92969,-4.09375 -3.85342,-0.3752 -45.33789,-2.22852 -45.33789,-2.22852 z m -300.2461,2.59375 -19.21875,0.41602 c 0,0 12.46411,3.39683 23.62696,5.90625 11.16285,2.50938 44.78113,-3.71649 40.92773,-4.0918 -3.85342,-0.37516 -45.33594,-2.23047 -45.33594,-2.23047 z m -67.671872,0.16602 -19.216797,0.41406 c 0,0 12.464103,3.39878 23.626953,5.9082 11.162856,2.50938 44.781136,-3.71844 40.927736,-4.09375 -3.85343,-0.37519 -45.337892,-2.22851 -45.337892,-2.22851 z m 495.302732,0.0684 -19.2168,0.41406 c 0,0 12.46409,3.39878 23.62696,5.9082 11.16283,2.50942 44.78111,-3.71649 40.92773,-4.0918 -3.85345,-0.37519 -45.33789,-2.23046 -45.33789,-2.23046 z m 65.29688,1.83203 -19.2168,0.41406 c 0,0 12.46412,3.39879 23.62695,5.9082 11.16288,2.50938 44.78115,-3.71844 40.92774,-4.09375 -3.85342,-0.37519 -45.33789,-2.22851 -45.33789,-2.22851 z m -365.97266,1.02734 -19.21875,0.41406 c 0,0 12.46409,3.39879 23.62695,5.90821 11.16284,2.50941 44.78115,-3.71845 40.92774,-4.09375 -3.85342,-0.3752 -45.33594,-2.22852 -45.33594,-2.22852 z m 123.30274,1.875 -19.2168,0.41406 c 0,0 12.46412,3.39879 23.62695,5.90821 11.16287,2.50938 44.78112,-3.71845 40.92774,-4.09375 -3.85342,-0.3752 -45.3379,-2.22852 -45.33789,-2.22852 z m 369.625,0.18945 -19.2168,0.41602 c 0,0 12.46415,3.39683 23.62695,5.90625 3.22109,0.72409 8.32696,0.70825 13.84766,0.32812 v -5.8125 c -9.05372,-0.42104 -18.25781,-0.83789 -18.25781,-0.83789 z m -733.945318,1.19532 -19.21875,0.41601 c 10e-7,0 12.464102,3.39683 23.626954,5.90625 11.162852,2.50942 44.781136,-3.7165 40.927734,-4.09179 -3.853425,-0.3752 -45.335937,-2.23047 -45.335938,-2.23047 z m 172.812498,0.1582 -19.21679,0.41406 c 0,0 12.4641,3.39879 23.62695,5.90821 11.16285,2.50936 44.78112,-3.71845 40.92773,-4.09376 -3.85343,-0.37518 -45.33789,-2.22851 -45.33789,-2.22851 z m 495.30274,0.0684 -19.2168,0.41406 c 0,0 12.46412,3.39879 23.62695,5.9082 11.16288,2.50938 44.78112,-3.71649 40.92774,-4.09179 -3.85346,-0.3752 -45.33789,-2.23047 -45.33789,-2.23047 z m -176.40821,1.2168 -19.21875,0.41406 c 0,0 12.46412,3.39878 23.62696,5.9082 11.16287,2.50938 44.78115,-3.71649 40.92773,-4.0918 -3.85342,-0.37515 -45.33594,-2.23046 -45.33594,-2.23046 z m -191.93945,1.80664 -19.2168,0.41601 c 0,0 12.46412,3.39683 23.62696,5.90625 11.16286,2.50938 44.78115,-3.7165 40.92773,-4.09179 -3.85338,-0.3752 -45.33789,-2.23047 -45.33789,-2.23047 z m 123.30469,1.875 -19.21875,0.41601 c 0,0 12.46412,3.3988 23.62695,5.9082 11.16287,2.50942 44.78115,-3.71845 40.92774,-4.09374 -3.85342,-0.37524 -45.33594,-2.23047 -45.33594,-2.23047 z m -296.65235,1.2207 -19.21679,0.41601 c 0,0 12.4641,3.39684 23.62695,5.90626 11.16285,2.50936 44.78113,-3.71649 40.92774,-4.0918 -3.85343,-0.3752 -45.3379,-2.23047 -45.3379,-2.23047 z m 491.70704,1.44336 -19.2168,0.41601 c 0,0 12.46408,3.39684 23.62695,5.90625 11.16284,2.50938 44.78115,-3.71649 40.92774,-4.09179 -3.85342,-0.37516 -45.33789,-2.23047 -45.33789,-2.23047 z m -67.66993,0.16406 -19.21679,0.41602 c 0,0 12.46412,3.39878 23.62695,5.9082 11.16283,2.50938 44.78111,-3.71844 40.92773,-4.09375 -3.85341,-0.37519 -45.33789,-2.23047 -45.33789,-2.23047 z m -297.08203,1.48633 -19.21679,0.41406 c 0,0 12.46411,3.3988 23.62695,5.9082 11.16286,2.50938 44.78112,-3.71845 40.92773,-4.09374 -3.85346,-0.3752 -45.33789,-2.22852 -45.33789,-2.22852 z M 79.25,422.19141 60.03125,422.60547 c 0,0 12.464103,3.39878 23.626953,5.9082 11.162854,2.50938 44.783087,-3.71844 40.929687,-4.09375 C 120.73447,424.04473 79.25,422.19141 79.25,422.19141 Z m 710.43555,1.25781 -19.21875,0.41406 c 0,0 12.46408,3.39879 23.62695,5.9082 0.79381,0.17845 1.71157,0.30897 2.71094,0.4043 v -6.40039 c -1.96067,-0.0885 -7.11914,-0.32617 -7.11914,-0.32617 z m -368.4043,0.43164 -19.2168,0.41406 c 0,0 12.46217,3.3988 23.625,5.9082 11.16288,2.50938 44.78311,-3.71845 40.92969,-4.09374 -3.85345,-0.37516 -45.33789,-2.22852 -45.33789,-2.22852 z m 127.38477,2.82812 -19.2168,0.41407 c 0,0 12.46408,3.39878 23.62695,5.9082 11.16284,2.50942 44.78112,-3.71649 40.92774,-4.0918 -3.85346,-0.37519 -45.33789,-2.23047 -45.33789,-2.23047 z m 172.81445,0.15821 -19.2168,0.41406 c 0,0 12.46217,3.39879 23.625,5.9082 11.16287,2.50938 44.78311,-3.71844 40.92969,-4.09375 -3.85342,-0.37519 -45.33789,-2.22851 -45.33789,-2.22851 z m -691.669923,0.28125 -19.21875,0.41601 c 0,0 12.464099,3.39684 23.626953,5.90625 11.162852,2.50938 44.781137,-3.71649 40.927734,-4.09179 -3.853425,-0.37524 -45.335937,-2.23047 -45.335937,-2.23047 z m 175.861333,1.38867 -19.21876,0.41406 c 10e-6,0 12.46411,3.39879 23.62696,5.90821 11.16285,2.50936 44.78112,-3.71649 40.92773,-4.0918 -3.85341,-0.3752 -45.33594,-2.23047 -45.33593,-2.23047 z m 126.95507,3.0918 -19.21875,0.41601 c 0,0 12.4641,3.3988 23.62696,5.9082 11.16283,2.50938 44.78113,-3.71845 40.92773,-4.09374 -3.85344,-0.3752 -45.33594,-2.23047 -45.33594,-2.23047 z m 342.46094,1.42578 -19.2168,0.41406 c 0,0 12.46412,3.39879 23.62696,5.9082 11.16287,2.50938 44.78115,-3.71649 40.92773,-4.09179 -3.85342,-0.3752 -45.33789,-2.23047 -45.33789,-2.23047 z m -518.85742,0.43945 -19.2168,0.41602 c 0,0 12.46412,3.39683 23.62695,5.90625 11.16286,2.50938 44.78114,-3.71649 40.92774,-4.0918 -3.85343,-0.37523 -45.33789,-2.23047 -45.33789,-2.23047 z m 299.69922,0.01 -19.2168,0.41601 c 0,0 12.46408,3.3988 23.62695,5.9082 11.16284,2.50942 44.78112,-3.71845 40.92774,-4.09374 -3.85342,-0.3752 -45.33789,-2.23047 -45.33789,-2.23047 z m 340.875,2.75586 -13.97852,0.30273 c 0,0 6.35444,1.72281 13.97852,3.61133 z m -213.48828,0.0742 -19.21875,0.41407 c 0,0 12.46408,3.39878 23.62695,5.9082 11.16283,2.50938 44.78111,-3.71844 40.92773,-4.09375 -3.85345,-0.37519 -45.33593,-2.22852 -45.33593,-2.22852 z m -532.158207,0.0781 -19.21875,0.41406 c 0,0 12.464103,3.39879 23.626953,5.90821 11.16285,2.5094 44.783094,-3.71649 40.929688,-4.0918 -3.853425,-0.3752 -45.337891,-2.23047 -45.337891,-2.23047 z m 232.029297,0.17578 -19.21875,0.41406 c 0,0 12.46412,3.39879 23.62695,5.90821 11.16286,2.50938 44.78112,-3.71845 40.92774,-4.09375 -3.85343,-0.3752 -45.33594,-2.22852 -45.33594,-2.22852 z m 123.30273,1.875 -19.21679,0.41406 c 0,0 12.46216,3.39879 23.625,5.90821 11.16283,2.50941 44.78306,-3.71845 40.92968,-4.09375 -3.8534,-0.3752 -45.33789,-2.22852 -45.33789,-2.22852 z m 127.38477,2.82813 -19.2168,0.41406 c 0,0 12.46412,3.39878 23.62696,5.9082 11.16287,2.50938 44.78115,-3.71649 40.92773,-4.0918 -3.85342,-0.37523 -45.33789,-2.23046 -45.33789,-2.23046 z m 175.86133,1.38867 -19.2168,0.41406 c 0,0 12.46412,3.39879 23.62695,5.9082 11.16288,2.50938 44.78112,-3.71844 40.92774,-4.09375 -3.85342,-0.37519 -45.33789,-2.22851 -45.33789,-2.22851 z m -532.15625,0.0781 -19.21875,0.41602 c 0,0 12.4641,3.39683 23.62695,5.90625 11.16285,2.50938 44.78114,-3.71649 40.92774,-4.0918 -3.85343,-0.37519 -45.33594,-2.23047 -45.33594,-2.23047 z m 126.95508,3.09375 -19.21875,0.41406 c 0,10e-6 12.46409,3.39879 23.62695,5.90821 11.16284,2.50938 44.78114,-3.71844 40.92773,-4.09375 -3.85341,-0.3752 -45.33593,-2.22852 -45.33593,-2.22852 z m 61.30859,0.4336 -16.5293,0.35742 c 0,0 10.72099,2.9217 20.32227,5.08008 9.60133,2.15837 38.51747,-3.19676 35.20312,-3.51954 -3.31438,-0.32268 -38.99609,-1.91796 -38.99609,-1.91796 z m -356.2167969,0.66992 -9.01171872,0.19531 v 3.69531 c 4.41685622,1.11412 9.25571132,2.30738 14.09179662,3.39453 12.861808,2.89131 51.598128,-4.28438 47.158203,-4.71679 -4.439924,-0.43227 -52.2382809,-2.56836 -52.2382809,-2.56836 z m 100.2011669,0.33984 -22.142573,0.47852 c 0,0 14.360863,3.9153 27.222653,6.80664 12.86185,2.89134 51.59809,-4.28438 47.15821,-4.7168 -4.43989,-0.4323 -52.23829,-2.56836 -52.23829,-2.56836 z m 128.28907,0 -22.14258,0.47852 c 0,0 14.36087,3.9153 27.22266,6.80664 12.86184,2.89134 51.59809,-4.28438 47.1582,-4.7168 -4.43989,-0.4323 -52.23828,-2.56836 -52.23828,-2.56836 z m 249.95508,0 -16.5293,0.35742 c 0,0 10.72098,2.92171 20.32226,5.08008 9.60137,2.15838 38.51747,-3.19676 35.20313,-3.51953 -3.31438,-0.3227 -38.99609,-1.91797 -38.99609,-1.91797 z m 172.22461,0.3418 -19.2168,0.41406 c 0,0 3.10343,0.8435 7.37304,1.94727 -9.18201,-0.52571 -35.12109,-1.69336 -35.12109,-1.69336 l -16.5293,0.35742 c 0,0 10.72098,2.92366 20.32227,5.08203 7.99352,1.79694 29.31182,-1.60714 34.33594,-2.98633 4.06153,1.03108 8.67623,2.17387 13.24609,3.20117 11.16284,2.50938 44.78112,-3.71649 40.92774,-4.09179 -3.85346,-0.37523 -45.33789,-2.23047 -45.33789,-2.23047 z m -232.45899,0.0898 -19.2168,0.41406 c 0,0 12.46412,3.39879 23.62696,5.90821 11.16287,2.50938 44.78115,-3.71844 40.92773,-4.09375 -3.85342,-0.37516 -45.33789,-2.22852 -45.33789,-2.22852 z m 127.38672,2.82813 -19.21875,0.41406 c 0,0 12.46412,3.39879 23.62695,5.9082 11.16287,2.50942 44.78115,-3.71844 40.92774,-4.09375 -3.85342,-0.37519 -45.33594,-2.22851 -45.33594,-2.22851 z m 232.02734,0.17383 -19.21679,0.41601 c 0,0 12.46411,3.39879 23.62695,5.9082 1.40015,0.31475 3.15413,0.49193 5.14258,0.56055 v -6.44531 c -3.30014,-0.1499 -9.55274,-0.43945 -9.55274,-0.43945 z m -105.60742,6.17187 -19.2168,0.41406 c 0,0 12.46409,3.39879 23.62696,5.90821 11.16283,2.50938 44.78115,-3.71845 40.92773,-4.09375 -3.85342,-0.3752 -45.33789,-2.22852 -45.33789,-2.22852 z m 115.16016,3.34766 -7.42188,0.16015 c 0,0 3.10616,0.84372 7.42188,1.95899 z m -640.50977,5.23047 -22.14258,0.47851 c 0,0 14.36087,3.9153 27.22266,6.80664 12.86185,2.89134 51.59809,-4.28439 47.1582,-4.71679 -4.43988,-0.43231 -52.23828,-2.56836 -52.23828,-2.56836 z m 226.27344,0 -22.14063,0.47851 c 0,0 14.36087,3.9153 27.22266,6.80664 12.86185,2.89134 51.59614,-4.28439 47.15625,-4.71679 -4.43989,-0.43231 -52.23828,-2.56836 -52.23828,-2.56836 z m 225.26562,0 -22.14257,0.47851 c 0,0 14.36088,3.9153 27.22265,6.80664 12.86185,2.89134 51.59614,-4.28439 47.15625,-4.71679 -4.43988,-0.43231 -52.23633,-2.56836 -52.23633,-2.56836 z m -547.86523,2.16015 -22.142578,0.47852 c 0,0 14.360886,3.9153 27.222656,6.80664 12.861808,2.8913 51.598092,-4.28438 47.158202,-4.7168 -4.43989,-0.4323 -52.23828,-2.56836 -52.23828,-2.56836 z m 238.39648,0 -22.14257,0.47852 c 0,0 14.36088,3.9153 27.22265,6.80664 12.86181,2.8913 51.59809,-4.28438 47.15821,-4.7168 -4.43989,-0.4323 -52.23829,-2.56836 -52.23829,-2.56836 z m 226.27344,0 -22.14258,0.47852 c 0,0 14.36089,3.9153 27.22266,6.80664 12.86181,2.8913 51.59809,-4.28438 47.1582,-4.7168 -4.43988,-0.4323 -52.23828,-2.56836 -52.23828,-2.56836 z m 225.26367,0 -22.14062,0.47852 c 0,0 14.36088,3.9153 27.22266,6.80664 9.15374,2.05774 31.34735,-0.97803 41.82031,-3.0586 V 469.875 c -13.41909,-0.73839 -46.90235,-2.23633 -46.90235,-2.23633 z m -537.0332,6.32813 -22.14062,0.47851 c 0,0 14.35893,3.91534 27.2207,6.80664 12.86177,2.89134 51.59809,-4.28438 47.1582,-4.71679 -4.43992,-0.43231 -52.23828,-2.56836 -52.23828,-2.56836 z m 226.27539,0 -22.14258,0.47851 c 0,0 14.36089,3.91534 27.22266,6.80664 12.86177,2.89134 51.59614,-4.28438 47.15625,-4.71679 -4.43993,-0.43231 -52.23633,-2.56836 -52.23633,-2.56836 z m 225.26367,0 -22.14258,0.47851 c 10e-6,0 14.36089,3.91534 27.22266,6.80664 12.86177,2.89134 51.59809,-4.28438 47.1582,-4.71679 -4.43992,-0.43231 -52.23828,-2.56836 -52.23828,-2.56836 z M 0.61523438,475.16992 v 6.03711 C 14.937571,479.79896 29.530897,476.8098 26.710938,476.53516 24.596513,476.32928 12.550609,475.73388 0.61523438,475.16992 Z m 44.28710962,3.99805 -22.142578,0.47851 c 0,0 14.360888,3.91524 27.222656,6.80664 12.86177,2.89127 51.596138,-4.28242 47.15625,-4.71484 -4.439887,-0.4323 -52.236328,-2.57031 -52.236328,-2.57031 z m 238.396486,0 -22.14258,0.47851 c 0,0 14.36089,3.91524 27.22266,6.80664 12.86177,2.89127 51.59613,-4.28242 47.15625,-4.71484 -4.43989,-0.4323 -52.23633,-2.57031 -52.23633,-2.57031 z m 226.27344,0 -22.14258,0.47851 c 0,0 14.36088,3.91524 27.22265,6.80664 12.86177,2.89127 51.59614,-4.28242 47.15625,-4.71484 -4.43988,-0.4323 -52.23632,-2.57031 -52.23632,-2.57031 z m 225.26367,0 -22.14258,0.47851 c 0,0 14.36089,3.91524 27.22266,6.80664 12.86177,2.89127 51.59809,-4.28242 47.1582,-4.71484 -4.43989,-0.4323 -52.23828,-2.57031 -52.23828,-2.57031 z m -509.13477,8.71484 -22.14062,0.47657 c 0,0 14.35893,3.9153 27.2207,6.80664 12.86181,2.8913 51.59805,-4.28243 47.1582,-4.71485 -4.43988,-0.4323 -52.23828,-2.56836 -52.23828,-2.56836 z m 226.27539,0 -22.14258,0.47657 c 0,0 14.36089,3.9153 27.22266,6.80664 12.86181,2.8913 51.5961,-4.28243 47.15625,-4.71485 -4.43989,-0.4323 -52.23633,-2.56836 -52.23633,-2.56836 z m 225.26367,0 -22.14257,0.47657 c 0,0 14.36088,3.9153 27.22265,6.80664 12.86181,2.8913 51.59805,-4.28243 47.15821,-4.71485 -4.43989,-0.4323 -52.23829,-2.56836 -52.23829,-2.56836 z M 0.61523438,488.49219 v 7.33789 C 16.915932,495.84886 43.248751,490.8121 39.542969,490.45117 36.311281,490.13651 14.636383,489.13141 0.61523438,488.49219 Z m 150.70898562,4.73047 -22.14258,0.47851 c 0,0 14.36087,3.9153 27.22266,6.80664 12.86177,2.8913 51.59809,-4.28243 47.1582,-4.71484 -4.43985,-0.4323 -52.23828,-2.57031 -52.23828,-2.57031 z m 226.27539,0 -22.14258,0.47851 c 0,0 14.36087,3.9153 27.22266,6.80664 12.86177,2.8913 51.59613,-4.28243 47.15625,-4.71484 -4.43985,-0.4323 -52.23633,-2.57031 -52.23633,-2.57031 z m 225.26367,0 -22.14258,0.47851 c 0,0 14.36089,3.9153 27.22266,6.80664 12.86177,2.8913 51.59614,-4.28243 47.15625,-4.71484 -4.43985,-0.4323 -52.23633,-2.57031 -52.23633,-2.57031 z m -547.865233,2.16015 -22.142578,0.47852 c 0,0 14.360886,3.91526 27.222656,6.80664 12.861808,2.89134 51.598085,-4.28239 47.158205,-4.71485 -4.43989,-0.43233 -52.238283,-2.57031 -52.238283,-2.57031 z m 238.396483,0 -22.14258,0.47852 c 0,0 14.36089,3.91526 27.22266,6.80664 12.86181,2.89134 51.59809,-4.28239 47.1582,-4.71485 -4.43988,-0.43233 -52.23828,-2.57031 -52.23828,-2.57031 z m 226.27344,0 -22.14063,0.47852 c 0,0 14.36089,3.91526 27.22266,6.80664 12.86181,2.89134 51.59614,-4.28239 47.15625,-4.71485 -4.43989,-0.43233 -52.23828,-2.57031 -52.23828,-2.57031 z m 225.26562,0 -22.14257,0.47852 c 0,0 14.36088,3.91526 27.22265,6.80664 11.17194,2.51145 41.82842,-2.56619 46.79102,-4.22852 v -0.50976 c -5.47721,-0.46977 -51.8711,-2.54688 -51.8711,-2.54688 z m -743.3886681,7.13086 -0.92968752,0.0195 v 5.86524 c 2.00414002,0.47836 4.02058792,0.95278 6.01171872,1.40039 12.8618079,2.8913 51.5961749,-4.28438 47.1562499,-4.7168 -4.439924,-0.43226 -52.2382811,-2.56836 -52.2382811,-2.56836 z m 238.3964881,0 -22.14258,0.47852 c 0,0 14.36085,3.9153 27.22265,6.80664 12.86181,2.8913 51.59813,-4.28438 47.15821,-4.7168 -4.43993,-0.43226 -52.23828,-2.56836 -52.23828,-2.56836 z m 226.27539,0 -22.14258,0.47852 c 0,0 14.36085,3.9153 27.22266,6.80664 12.86179,2.8913 51.59617,-4.28438 47.15624,-4.7168 -4.43991,-0.43226 -52.23632,-2.56836 -52.23632,-2.56836 z m 225.26367,0 -22.14258,0.47852 c 0,0 14.36085,3.9153 27.22266,6.80664 12.8618,2.8913 51.59617,-4.28438 47.15625,-4.7168 -4.43993,-0.43226 -52.23633,-2.56836 -52.23633,-2.56836 z m -566.69531,5.05078 -22.14258,0.47852 c 0,0 14.36085,3.9153 27.22265,6.80664 12.86181,2.8913 51.59618,-4.28438 47.15625,-4.7168 -4.43992,-0.43226 -52.23632,-2.56836 -52.23632,-2.56836 z m -83.31641,6.03907 -22.142578,0.47851 c 0,0 14.36085,3.9153 27.222656,6.80664 12.86177,2.89134 51.596099,-4.28439 47.15625,-4.71679 -4.439886,-0.43231 -52.236328,-2.56836 -52.236328,-2.56836 z m 238.39648,0 -22.14257,0.47851 c 0,0 14.36084,3.9153 27.22265,6.80664 12.86177,2.89134 51.5961,-4.28439 47.15625,-4.71679 -4.43988,-0.43231 -52.23633,-2.56836 -52.23633,-2.56836 z m 226.27344,0 -22.14258,0.47851 c 0,0 14.36085,3.9153 27.22266,6.80664 12.86177,2.89134 51.59805,-4.28439 47.1582,-4.71679 -4.43988,-0.43231 -52.23828,-2.56836 -52.23828,-2.56836 z m 225.26367,0 -22.14257,0.47851 c 0,0 14.36084,3.9153 27.22265,6.80664 12.86177,2.89134 51.59805,-4.28439 47.1582,-4.71679 -4.43987,-0.43231 -52.23828,-2.56836 -52.23828,-2.56836 z m -508.50195,5.71093 -22.14258,0.47852 c 0,0 14.36089,3.9153 27.22266,6.80664 12.86177,2.89134 51.5961,-4.28239 47.15625,-4.71484 -4.43989,-0.43227 -52.23633,-2.57032 -52.23633,-2.57032 z m 226.27344,0 -22.14258,0.47852 c 0,0 14.36089,3.9153 27.22266,6.80664 12.86177,2.89134 51.59805,-4.28239 47.1582,-4.71484 -4.43989,-0.43227 -52.23828,-2.57032 -52.23828,-2.57032 z m 225.26367,0 -22.14258,0.47852 c 0,0 14.36089,3.9153 27.22266,6.80664 12.86177,2.89134 51.59805,-4.28239 47.1582,-4.71484 -4.43989,-0.43227 -52.23828,-2.57032 -52.23828,-2.57032 z M 0.61523438,520.05469 v 7.16992 C 16.950256,526.73678 40.241452,522.2256 36.742188,521.88477 33.76483,521.59489 15.099312,520.71957 0.61523438,520.05469 Z m 111.90038562,3.29297 -34.042964,0.73632 c 0,0 22.078834,6.01948 41.853514,10.46485 19.77474,4.44529 79.33011,-6.58715 72.50391,-7.25195 -6.82624,-0.66467 -80.31445,-3.94922 -80.31446,-3.94922 z m 245.4668,0 -34.04297,0.73632 c 0,0 22.07884,6.01948 41.85352,10.46485 19.77474,4.44529 79.3301,-6.58715 72.50391,-7.25195 -6.82625,-0.66467 -80.31446,-3.94922 -80.31446,-3.94922 z m 219.20313,0 -34.04297,0.73632 c 0,0 22.07884,6.01948 41.85351,10.46485 19.77476,4.44529 79.33011,-6.58715 72.50391,-7.25195 -6.82624,-0.66467 -80.31445,-3.94922 -80.31445,-3.94922 z m -568.0839875,6.64062 -8.48632812,0.1836 v 3.83984 c 4.28764802,1.07828 8.92335942,2.21796 13.56640662,3.26172 12.861806,2.8913 51.596136,-4.28438 47.15625,-4.7168 -4.439887,-0.43226 -52.2363285,-2.56836 -52.2363285,-2.56836 z m 238.3964875,0 -22.14258,0.47852 c 0,0 14.36089,3.9153 27.22265,6.80664 12.86181,2.8913 51.59613,-4.28438 47.15626,-4.7168 -4.43989,-0.43226 -52.23633,-2.56836 -52.23633,-2.56836 z m 226.27343,0 -22.14257,0.47852 c 0,0 14.36088,3.9153 27.22265,6.80664 12.86181,2.8913 51.59809,-4.28438 47.15821,-4.7168 -4.43989,-0.43226 -52.23829,-2.56836 -52.23829,-2.56836 z m 225.26368,0 -22.14258,0.47852 c 0,0 14.36088,3.9153 27.22265,6.80664 12.86181,2.8913 51.59809,-4.28438 47.15821,-4.7168 -4.43989,-0.43226 -52.23828,-2.56836 -52.23828,-2.56836 z m 69.21679,4.84961 -22.14257,0.47852 c 0,0 14.36084,3.9153 27.22265,6.80664 5.15315,1.15841 14.45389,0.69127 23.47266,-0.30078 v -5.66211 c -13.92171,-0.6633 -28.55274,-1.32227 -28.55274,-1.32227 z m -442.83007,15.49219 -34.04493,0.73633 c 0,0 22.08075,6.01947 41.85547,10.46484 19.77481,4.44537 79.32819,-6.58514 72.50196,-7.25 -6.82621,-0.66463 -80.31251,-3.95117 -80.3125,-3.95117 z m 344.46093,0 -34.04297,0.73633 c 0,0 22.0788,6.01947 41.85352,10.46484 19.77479,4.44537 79.33015,-6.58514 72.50391,-7.25 -6.82621,-0.66463 -80.31446,-3.95117 -80.31446,-3.95117 z M 0.61523438,551.2793 v 11.29687 C 25.696333,562.55327 65.942371,554.83434 60.263672,554.28125 55.313503,553.79928 22.230966,552.26568 0.61523438,551.2793 Z m 197.76367562,2.37304 -34.04493,0.73438 c 0,0 22.08078,6.02143 41.85547,10.4668 19.77475,4.44529 79.32818,-6.58714 72.50196,-7.25196 -6.82623,-0.66467 -80.3125,-3.94922 -80.3125,-3.94922 z m 345.4707,0 -34.04297,0.73438 c 0,0 22.07884,6.02143 41.85352,10.4668 19.77475,4.44529 79.33011,-6.58714 72.5039,-7.25196 -6.82624,-0.66467 -80.31445,-3.94922 -80.31445,-3.94922 z m -476.917969,9.73047 -34.042969,0.73438 c 0,0 22.078823,6.01951 41.853516,10.46484 19.774691,4.44537 79.330132,-6.58518 72.503902,-7.25 -6.82628,-0.66467 -80.314449,-3.94922 -80.314449,-3.94922 z m 345.472659,0 -34.04492,0.73438 c 0,0 22.08079,6.01951 41.85546,10.46484 19.77472,4.44537 79.3282,-6.58518 72.50196,-7.25 -6.82628,-0.66467 -80.3125,-3.94922 -80.3125,-3.94922 z m 344.46093,0 -34.04296,0.73438 c 0,0 22.07883,6.01951 41.85351,10.46484 7.16731,1.61122 19.56458,1.17562 32.12891,-0.0488 v -9.3125 c -20.09302,-0.94904 -39.93946,-1.83789 -39.93946,-1.83789 z m -581.65234,7.9961 -34.04297,0.73632 c 0,0 22.07883,6.01937 41.85352,10.46485 19.77469,4.44525 79.33013,-6.58515 72.5039,-7.25 -6.82622,-0.66463 -80.31445,-3.95117 -80.31445,-3.95117 z m 345.47266,0 -34.04493,0.73632 c 10e-6,0 22.0808,6.01937 41.85547,10.46485 19.77468,4.44525 79.3282,-6.58515 72.50196,-7.25 -6.82625,-0.66463 -80.3125,-3.95117 -80.3125,-3.95117 z m -434.025394,13.39648 -34.042968,0.73633 c 0,0 22.078827,6.01948 41.853515,10.46484 19.774757,4.44529 79.330077,-6.58518 72.503907,-7.25 -6.82623,-0.66467 -80.314454,-3.95117 -80.314454,-3.95117 z m 345.472654,0 -34.04297,0.73633 c 0,0 22.07884,6.01948 41.85352,10.46484 19.77475,4.44529 79.33007,-6.58518 72.50391,-7.25 -6.82625,-0.66467 -80.31446,-3.95117 -80.31446,-3.95117 z m 344.46094,0 -34.04297,0.73633 c 0,0 22.07884,6.01948 41.85352,10.46484 3.22529,0.72504 7.51923,1.0331 12.40039,1.04688 v -11.32032 c -7.89657,-0.36012 -20.21094,-0.92773 -20.21094,-0.92773 z m -458.81445,8.21289 -34.04297,0.73438 c 0,0 22.0788,6.02143 41.85351,10.46679 19.7747,4.44533 79.33015,-6.58709 72.50391,-7.25195 -6.82617,-0.66463 -80.31445,-3.94922 -80.31445,-3.94922 z m 344.46093,0 -34.04296,0.73438 c 0,0 22.08075,6.02143 41.85546,10.46679 19.77468,4.44533 79.3282,-6.58709 72.50196,-7.25195 -6.82617,-0.66463 -80.31446,-3.94922 -80.31446,-3.94922 z M 0.61523438,594.28711 v 10.74414 C 25.40537,603.78876 57.750042,597.43705 52.621094,596.9375 48.364753,596.52308 22.731116,595.30736 0.61523438,594.28711 Z m 190.12109562,2.02344 -34.04297,0.73437 c 0,0 22.07882,6.01944 41.85352,10.46485 19.77474,4.44536 79.33013,-6.58515 72.5039,-7.25 -6.82623,-0.66475 -80.31445,-3.94922 -80.31445,-3.94922 z m 345.47265,0 -34.04296,0.73437 c 0,0 22.0788,6.01944 41.85351,10.46485 19.77475,4.44536 79.33011,-6.58515 72.50391,-7.25 -6.82625,-0.66475 -80.31446,-3.94922 -80.31446,-3.94922 z m -427.65429,10.96093 -34.044924,0.73633 c 0,0 22.080724,6.01948 41.855464,10.46485 19.77475,4.44533 79.32825,-6.58518 72.50196,-7.25 -6.82629,-0.6646 -80.3125,-3.95118 -80.3125,-3.95118 z m 345.4707,0 -34.04297,0.73633 c 0,0 22.07876,6.01948 41.85352,10.46485 19.77475,4.44533 79.33018,-6.58518 72.5039,-7.25 -6.82628,-0.6646 -80.31445,-3.95118 -80.31445,-3.95118 z m 342.7793,0.0371 -32.35938,0.69922 c 0,0 15.63226,4.2541 32.35938,8.25196 z m -626.8711,17.01368 -34.04297,0.73437 c 10e-6,0 22.07877,6.01948 41.85352,10.46484 19.77469,4.44537 79.33008,-6.58518 72.50391,-7.25 -6.82623,-0.66466 -80.31446,-3.94921 -80.31446,-3.94921 z m 345.47266,0 -34.04297,0.73437 c 0,0 22.07876,6.01948 41.85352,10.46484 19.77467,4.44537 79.33007,-6.58518 72.5039,-7.25 -6.8262,-0.66466 -80.31445,-3.94921 -80.31445,-3.94921 z m -433.054688,8.78125 -34.042968,0.73632 c 0,0 22.078824,6.01948 41.853515,10.46485 19.774691,4.44536 79.330081,-6.58511 72.503911,-7.25 -6.82624,-0.66459 -80.314457,-3.95117 -80.314458,-3.95117 z m 345.472658,0 -34.04297,0.73632 c 0,0 22.0788,6.01948 41.85352,10.46485 19.77467,4.44536 79.33007,-6.58511 72.5039,-7.25 -6.82624,-0.66459 -80.31445,-3.95117 -80.31445,-3.95117 z m 344.46289,0 -34.04492,0.73632 c 0,0 22.08075,6.01948 41.85547,10.46485 4.14407,0.93159 10.04602,1.17817 16.70703,0.98828 v -11.06445 c -10.76764,-0.49403 -24.51758,-1.125 -24.51758,-1.125 z M 120.16992,649.51367 86.126953,650.25 c 0,0 22.078827,6.01948 41.853517,10.46484 19.77475,4.44533 79.33013,-6.58518 72.50391,-7.25 -6.82623,-0.66459 -80.31446,-3.95117 -80.31446,-3.95117 z m 345.47266,0 -34.04297,0.73633 c 0,0 22.07881,6.01948 41.85351,10.46484 19.77476,4.44533 79.33015,-6.58518 72.50391,-7.25 -6.8262,-0.66459 -80.31445,-3.95117 -80.31445,-3.95117 z m 331.16211,0.28711 -20.74414,0.44922 c 0,0 9.19934,2.48065 20.74414,5.38672 z"
       id="path4705"
       transform="matrix(0.26458333,0,0,0.26458333,-0.51026781,0.2886903)"
       inkscape:connector-curvature="0" />
    <g
       id="g4703"
       transform="matrix(1,0,0,-1,1.8708867,235.43296)"
       style="opacity:0.14599998">
      <ellipse
         style="opacity:1;vector-effect:none;fill:#141937;fill-opacity:1;stroke:none;stroke-width:0.07513525;stroke-linecap:butt;stroke-linejoin:miter;stroke-miterlimit:4;stroke-dasharray:none;stroke-dashoffset:0;stroke-opacity:1"
         id="ellipse4689"
         cx="172.35863"
         cy="107.16114"
         rx="0.96469796"
         ry="1.2125504" />
      <path
         style="opacity:1;vector-effect:none;fill:#f9efb0;fill-opacity:1;stroke:none;stroke-width:0.11546418;stroke-linecap:butt;stroke-linejoin:miter;stroke-miterlimit:4;stroke-dasharray:none;stroke-dashoffset:0;stroke-opacity:1"
         d="M 177.49124,111.34302 V 90.465115 l 8.63596,14.957905 z"
         id="path4691"
         inkscape:connector-curvature="0" />
      <path
         style="opacity:1;vector-effect:none;fill:#141937;fill-opacity:1;stroke:none;stroke-width:0.08351778;stroke-linecap:butt;stroke-linejoin:miter;stroke-miterlimit:4;stroke-dasharray:none;stroke-dashoffset:0;stroke-opacity:1"
         d="m 173.43812,108.80619 2.53685,2.91591 -1.13721,-0.0292 -1.54543,-2.30356 z"
         id="path4693"
         inkscape:connector-curvature="0"
         sodipodi:nodetypes="ccccc" />
      <rect
         style="opacity:1;vector-effect:none;fill:#141937;fill-opacity:1;stroke:none;stroke-width:0.08553556;stroke-linecap:butt;stroke-linejoin:miter;stroke-miterlimit:4;stroke-dasharray:none;stroke-dashoffset:0;stroke-opacity:1"
         id="rect4695"
         width="3.2354391"
         height="4.3455243"
         x="170.69717"
         y="108.45546"
         ry="1.1609867" />
      <path
         style="opacity:1;vector-effect:none;fill:#141937;fill-opacity:1;stroke:none;stroke-width:0.08351778;stroke-linecap:butt;stroke-linejoin:miter;stroke-miterlimit:4;stroke-dasharray:none;stroke-dashoffset:0;stroke-opacity:1"
         d="m 170.9596,108.98114 -1.51627,2.36189 0.72897,0.29159 1.16637,-2.18693 z"
         id="path4697"
         inkscape:connector-curvature="0"
         sodipodi:nodetypes="ccccc" />
      <path
         style="opacity:1;fill:#9a840b;fill-opacity:1;stroke:none;stroke-width:0.11546418;stroke-opacity:1"
         d="m 158.33785,111.32976 h 31.49184 l -5.65686,5.62199 h -20.17811 z"
         id="path4699"
         inkscape:connector-curvature="0"
         sodipodi:nodetypes="ccccc" />
      <rect
         style="opacity:1;vector-effect:none;fill:#141937;fill-opacity:1;stroke:none;stroke-width:0.08351778;stroke-linecap:butt;stroke-linejoin:miter;stroke-miterlimit:4;stroke-dasharray:none;stroke-dashoffset:0;stroke-opacity:1"
         id="rect4701"
         width="0.61234128"
         height="1.3121599"
         x="172.0385"
         y="107.84393"
         ry="0.30617064" />
    </g>
    <g
       id="g4687">
      <ellipse
         ry="1.2125504"
         rx="0.96469796"
         cy="107.16114"
         cx="172.35863"
         id="path4654"
         style="opacity:1;vector-effect:none;fill:#141937;fill-opacity:1;stroke:none;stroke-width:0.07513525;stroke-linecap:butt;stroke-linejoin:miter;stroke-miterlimit:4;stroke-dasharray:none;stroke-dashoffset:0;stroke-opacity:1" />
      <path
         inkscape:connector-curvature="0"
         id="path4638"
         d="M 177.49124,111.34302 V 90.465115 l 8.63596,14.957905 z"
         style="opacity:1;vector-effect:none;fill:#f9efb0;fill-opacity:1;stroke:none;stroke-width:0.11546418;stroke-linecap:butt;stroke-linejoin:miter;stroke-miterlimit:4;stroke-dasharray:none;stroke-dashoffset:0;stroke-opacity:1" />
      <path
         sodipodi:nodetypes="ccccc"
         inkscape:connector-curvature="0"
         id="path4660"
         d="m 173.43812,108.80619 2.53685,2.91591 -1.13721,-0.0292 -1.54543,-2.30356 z"
         style="opacity:1;vector-effect:none;fill:#141937;fill-opacity:1;stroke:none;stroke-width:0.08351778;stroke-linecap:butt;stroke-linejoin:miter;stroke-miterlimit:4;stroke-dasharray:none;stroke-dashoffset:0;stroke-opacity:1" />
      <rect
         ry="1.1609867"
         y="108.45546"
         x="170.69717"
         height="4.3455243"
         width="3.2354391"
         id="rect4656"
         style="opacity:1;vector-effect:none;fill:#141937;fill-opacity:1;stroke:none;stroke-width:0.08553556;stroke-linecap:butt;stroke-linejoin:miter;stroke-miterlimit:4;stroke-dasharray:none;stroke-dashoffset:0;stroke-opacity:1" />
      <path
         sodipodi:nodetypes="ccccc"
         inkscape:connector-curvature="0"
         id="path4662"
         d="m 170.9596,108.98114 -1.51627,2.36189 0.72897,0.29159 1.16637,-2.18693 z"
         style="opacity:1;vector-effect:none;fill:#141937;fill-opacity:1;stroke:none;stroke-width:0.08351778;stroke-linecap:butt;stroke-linejoin:miter;stroke-miterlimit:4;stroke-dasharray:none;stroke-dashoffset:0;stroke-opacity:1" />
      <path
         sodipodi:nodetypes="ccccc"
         inkscape:connector-curvature="0"
         id="rect4635"
         d="m 158.33785,111.32976 h 31.49184 l -5.65686,5.62199 h -20.17811 z"
         style="opacity:1;fill:#9a840b;fill-opacity:1;stroke:none;stroke-width:0.11546418;stroke-opacity:1" />
      <rect
         ry="0.30617064"
         y="107.84393"
         x="172.0385"
         height="1.3121599"
         width="0.61234128"
         id="rect4678"
         style="opacity:1;vector-effect:none;fill:#141937;fill-opacity:1;stroke:none;stroke-width:0.08351778;stroke-linecap:butt;stroke-linejoin:miter;stroke-miterlimit:4;stroke-dasharray:none;stroke-dashoffset:0;stroke-opacity:1" />
    </g>
  </g>
</svg>
