<?xml version="1.0" encoding="UTF-8" standalone="no"?>
<svg
   xmlns:dc="http://purl.org/dc/elements/1.1/"
   xmlns:cc="http://creativecommons.org/ns#"
   xmlns:rdf="http://www.w3.org/1999/02/22-rdf-syntax-ns#"
   xmlns:svg="http://www.w3.org/2000/svg"
   xmlns="http://www.w3.org/2000/svg"
   xmlns:xlink="http://www.w3.org/1999/xlink"
   xmlns:sodipodi="http://sodipodi.sourceforge.net/DTD/sodipodi-0.dtd"
   xmlns:inkscape="http://www.inkscape.org/namespaces/inkscape"
   width="24"
   height="24"
   viewBox="0 0 24 24"
   id="svg2"
   version="1.1"
   inkscape:version="0.91 r13725"
   sodipodi:docname="Attendance-icon (copy).svg"
   inkscape:export-filename="/home/milind/AttendThumb.svg.png"
   inkscape:export-xdpi="90"
   inkscape:export-ydpi="90">
  <metadata
     id="metadata14">
    <rdf:RDF>
      <cc:Work
         rdf:about="">
        <dc:format>image/svg+xml</dc:format>
        <dc:type
           rdf:resource="http://purl.org/dc/dcmitype/StillImage" />
        <dc:title />
      </cc:Work>
    </rdf:RDF>
  </metadata>
  <sodipodi:namedview
     pagecolor="#ffffff"
     bordercolor="#666666"
     borderopacity="1"
     objecttolerance="10"
     gridtolerance="10"
     guidetolerance="10"
     inkscape:pageopacity="0"
     inkscape:pageshadow="2"
     inkscape:window-width="1301"
     inkscape:window-height="744"
     id="namedview12"
     showgrid="false"
     inkscape:zoom="23.84"
     inkscape:cx="13.082947"
     inkscape:cy="11.991279"
     inkscape:window-x="65"
     inkscape:window-y="24"
     inkscape:window-maximized="1"
     inkscape:current-layer="svg2" />
  <defs
     id="defs4">
    <path
       id="a"
       d="M0 0h24v24H0V0z" />
  </defs>
  <clipPath
     id="b">
    <use
       xlink:href="#a"
       overflow="visible"
       id="use8" />
  </clipPath>
  <path
     style="fill:#ff00ff"
     clip-path="url(#b)"
     d="M 11.5,6 C 10.67,6 10,6.67 10,7.5 l 0,10.740234 -1.8776741,-0.30124 c -0.5534753,0.215243 -0.995268,0.599896 -0.995268,0.599896 0,0 0.1640175,1.724038 -0.035982,1.924037 l 0.762951,1.721651 1.8354262,1.37597 C 9.9594531,23.830547 10.34,24 10.75,24 l 6.789062,0 c 0.75,0 1.331407,-0.549297 1.441407,-1.279297 l 0.75,-5.271484 C 19.740469,17.379219 19.75,17.31 19.75,17.25 c 0,-0.62 -0.380156,-1.160859 -0.910156,-1.380859 L 14.300781,13.609375 C 14.130781,13.539375 13.949766,13.5 13.759766,13.5 L 13,13.5 13,7.5 C 13,6.67 12.33,6 11.5,6 Z M 8.8535156,7.2285156 c -0.00188,0.00477 -0.00353,0.00985 -0.00586,0.015625 -3.133e-4,0.00847 -0.00167,0.016926 -0.00195,0.025391 0.00232,-0.013688 0.00585,-0.027161 0.00781,-0.041016 z M 14,10.175781 l 0,0.06055 c 0.0014,-0.01202 0.0043,-0.02562 0.0059,-0.03906 -0.0012,-0.0076 -0.0049,-0.01385 -0.0059,-0.02149 z m 0.779297,0.31836 c -0.02102,0.05979 -0.05454,0.11498 -0.08984,0.167968 0.0309,-0.03109 0.05796,-0.06569 0.08789,-0.09766 0.0042,-0.02276 0.0014,-0.04444 0.002,-0.06641 3.6e-5,-0.0013 -3.6e-5,-0.0026 0,-0.0039 z m -6.1718751,0.226562 c -0.010665,0.0023 -0.041721,0.009 -0.03125,0.0059 0.014544,-0.0042 0.027355,0.0023 0.041016,0 -0.00359,-7.14e-4 -0.00609,-0.0056 -0.00977,-0.0059 z M 14.035156,11.0625 c -0.004,0.0062 -0.0056,0.01001 -0.0078,0.01563 0.0029,-0.0049 0.0052,-0.01065 0.0078,-0.01563 z M 9,11.21875 c -0.00526,0.0033 -0.01021,0.0068 -0.015625,0.0098 0.00541,0.0037 0.010194,0.0081 0.015625,0.01172 l 0,-0.02148 z"
     id="path10"
     inkscape:connector-curvature="0"
     transform="translate(-0.25,-3)"
     sodipodi:nodetypes="ssccccccssccsccscsscccccccccccccccccccccccccc" />
</svg>
